…
Get the latest data from several PurpleAir sensors:

Get historical data from a single PurpleAir sensor:

``` r
my_history <-
  get_sensor_history(
    sensor_index = 175413,
    fields = c("pm1.0_cf_1", "pm1.0_atm", "pm2.5_cf_1", "pm2.5_atm"),
    start_timestamp = as.POSIXct("2024-07-02"),
    end_timestamp = as.POSIXct("2024-07-05")
  )

my_history
#> # A tibble: 432 × 5
#>    time_stamp          pm1.0_cf_1 pm1.0_atm pm2.5_atm pm2.5_cf_1
#>    <dttm>                   <dbl>     <dbl>     <dbl>      <dbl>
#>  1 2024-07-04 22:30:00    2522.     1683.     1689.      2530.  
#>  2 2024-07-04 23:00:00    2530.     1687.     1695.      2541.  
#>  3 2024-07-04 07:20:00    2503.     1670.     1671.      2504.  
#>  4 2024-07-04 13:10:00    2505.     1672.     1674.      2507.  
#>  5 2024-07-04 19:50:00       9.73      9.73     12.1       12.1 
#>  6 2024-07-04 13:50:00    2504.     1671.     1673.      2506.  
#>  7 2024-07-03 21:00:00    2504.     1671.     1672.      2505.  
#>  8 2024-07-02 07:00:00    2501.     1668.     1669.      2502.  
#>  9 2024-07-02 16:10:00       1.62      1.62      1.94       1.94
#> 10 2024-07-03 10:20:00      14.6      14.6      17.4       17.4 
#> # ℹ 422 more rows
```
…
